…
<img src="man/figures/README-unnamed-chunk-5-4.png" width="100%" />

### Step 4: Model Validation

This step compare the estimates from RWD with those from RCT data, and
validate difference methods using RWD.

``` r
fusion <- Fusion$new(target.obj,
                     source.obj,
                     source.obj.rep)
fusion$evaluate()
#> # A tibble: 34 x 7
#> # Groups:   group_name [17]
#>    group_name          estimator             size     mse len_ci agg.est agg.reg
#>    <chr>               <chr>                <dbl>   <dbl>  <dbl> <lgl>   <lgl>  
#>  1 pop                 G_computation/glm/E~  2622 9.8 e-2  4.83  TRUE    TRUE   
#>  2 pop                 G_computation/glm     2622 6.66e+2  0.239 FALSE   TRUE   
#>  3 x1=0,x3=0,x4=0,x5=0 G_computation/glm/E~    46 5.58e+0  9.53  TRUE    TRUE   
#>  4 x1=0,x3=0,x4=0,x5=0 G_computation/glm       46 1.58e+3  1.33  FALSE   TRUE   
#>  5 x1=0,x3=0,x4=0,x5=1 G_computation/glm/E~   105 3.55e+0  8.94  TRUE    TRUE   
#>  6 x1=0,x3=0,x4=0,x5=1 G_computation/glm      105 1.35e+3  0.938 FALSE   TRUE   
#>  7 x1=0,x3=0,x4=1,x5=0 G_computation/glm/E~   184 1.21e+1  4.64  TRUE    TRUE   
#>  8 x1=0,x3=0,x4=1,x5=0 G_computation/glm      184 1.28e+3  0.707 FALSE   TRUE   
#>  9 x1=0,x3=0,x4=1,x5=1 G_computation/glm/E~   391 9.47e+0  6.21  TRUE    TRUE   
#> 10 x1=0,x3=0,x4=1,x5=1 G_computation/glm      391 9.68e+2  0.502 FALSE   TRUE   
#> # ... with 24 more rows
#> # i Use `print(n = ...)` to see more rows
…
